…
Cependant, Google a une forte tendance à renvoyer des résultats qui dépassent un peu le périmètre (des faux positifs en quelque sorte). D’autant que dans notre cas, il n’y a pas de type correspondant aux salles d’escalade permettant de restreindre les résultats à cette catégorie.

Résultat, parmi les places obtenues, on retrouve bien nos salles d’escalade de blocs (Arkose, Block’Out,…) mais aussi des sites naturels de grimpe, des associations, des salles de gym, des restaurants, des campings, etc. Bref, il va falloir faire le ménage!

On commence par filtrer sur les types

library(stringr)
library(tibble)
# on tockenize les types dans un df
lst_type <- tibble(type = unlist(str_split(paste(result_dedup$types,collapse=" ")," "))) %>% 
            group_by(type) %>%
            summarise(n = n())
lst_type  
   # A tibble: 28 x 2
      type               n
      <chr>          <int>
    1 amusement_park     4
    2 bar               22
    3 bicycle_store      1
    4 bowling_alley      1
    5 campground        12
    6 casino             1
    7 church             1
    8 city_hall          2
    9 clothing_store     2
   10 doctor             1
   # ... with 18 more rows
…
